Verilog.ws/syncFIFO/syncFIFO.vcd
$date
	Sun Sep 14 23:21:18 2025
$end
$version
	Icarus Verilog
$end
$timescale
	1s
$end
$scope module tb $end
$var wire 1 ! full $end
$var wire 1 " empty $end
$var wire 16 # dout [15:0] $end
$var reg 1 $ clk $end
$var reg 16 % din [15:0] $end
$var reg 1 & rd_en $end
$var reg 16 ' rdata [15:0] $end
$var reg 1 ( rstn $end
$var reg 1 ) stop $end
$var reg 1 * wr_en $end
$var integer 32 + i [31:0] $end
$scope module u_sync_fifo $end
$var wire 1 $ clk $end
$var wire 16 , din [15:0] $end
$var wire 1 & rd_en $end
$var wire 1 ( rstn $end
$var wire 1 * wr_en $end
$var wire 1 ! full $end
$var wire 1 " empty $end
$var parameter 32 - DEPTH $end
$var parameter 32 . DWIDTH $end
$var reg 16 / dout [15:0] $end
$var reg 3 0 rptr [2:0] $end
$var reg 3 1 wptr [2:0] $end
$upscope $end
$upscope $end
$enddefinitions $end
$comment Show the parameter values. $end
$dumpall
b10000 .
b1000 -
$end
#0
$dumpvars
bx 1
bx 0
bx /
bx ,
bx +
0*
0)
0(
bx '
0&
bx %
0$
bx #
x"
x!
$end
#10
0!
1"
b0 1
b0 0
b1101011000001001 %
b1101011000001001 ,
1*
b0 +
1$
#20
0$
#30
b111101100001101 %
b111101100001101 ,
b1 +
1$
#40
0$
#50
0"
b1 1
b1000010001100101 %
b1000010001100101 ,
b10 +
1$
1(
#60
0$
#70
1&
b1110001100000001 %
b1110001100000001 ,
0*
b10 1
b11 +
1$
#80
0$
#90
b1 0
b111101100001101 #
b111101100001101 /
b101011111101101 %
b101011111101101 ,
1*
0&
b100 +
1$
#100
0$
#110
b111101100001101 '
b1110100111111001 %
b1110100111111001 ,
0*
b11 1
b101 +
1$
#120
0$
#130
b1111011111100101 %
b1111011111100101 ,
1&
b110 +
1$
#140
0$
#150
b1101011000010010 %
b1101011000010010 ,
1*
b10 0
b1000010001100101 #
b1000010001100101 /
b111 +
1$
#160
0$
#170
b100 1
0"
b11 0
b101011111101101 #
b101011111101101 /
b111101011101000 %
b111101011101000 ,
0*
0&
b1000010001100101 '
b1000 +
1$
#180
0$
#190
1&
b101011111101101 '
b100100101011100 %
b100100101011100 ,
1*
b1001 +
1$
#200
0$
#210
b101 1
0"
b100 0
b1101011000010010 #
b1101011000010010 /
b110001001100011 %
b110001001100011 ,
b1010 +
1$
#220
0$
#230
0&
b1101011000010010 '
b10001010000000 %
b10001010000000 ,
0*
b101 0
b100100101011100 #
b100100101011100 /
b110 1
b1011 +
1$
#240
0$
#250
b11111010010110 %
b11111010010110 ,
1*
b100100101011100 '
b1100 +
1$
#260
0$
#270
1&
b11100000001101 %
b11100000001101 ,
b111 1
b1101 +
1$
#280
0$
#290
b0 1
b110 0
b110001001100011 #
b110001001100011 /
b100101000000010 %
b100101000000010 ,
b1110 +
1$
#300
0$
#310
b110001001100011 '
b1110100100011101 %
b1110100100011101 ,
0*
b111 0
b11111010010110 #
b11111010010110 /
b1 1
b1111 +
1$
#320
0$
#330
b0 0
b11100000001101 #
b11100000001101 /
b101011001010 %
b101011001010 ,
b11111010010110 '
b10000 +
1$
#340
0$
#350
0&
b11100000001101 '
b1011110111110010 %
b1011110111110010 ,
1"
b1 0
b100101000000010 #
b100101000000010 /
b10001 +
1$
#360
0$
#370
b11010011011000 %
b11010011011000 ,
1*
b100101000000010 '
b10010 +
1$
#380
0$
#390
b1001010001001 %
b1001010001001 ,
0*
0"
b10 1
b10011 +
1$
#400
0$
#410
1&
1)
b10100 +
1$
#420
0$
#430
1"
b10 0
b11010011011000 #
b11010011011000 /
1$
